{
  "info": {
    "count": 826,
    "pages": 42,
    "next": "https://rickandmortyapi.com/api/character?page=2",
    "prev": null
  },
  "results": [
    {
      "id": 1,
      "name": "Rick Sanchez",
      "status": "Alive",
      "species": "Human",
      "type": "",
      "gender": "Male",
      "image": "https://rickandmortyapi.com/api/character/avatar/1.jpeg",
      "origin": {
        "name": "Earth (C-137)",
        "url": "https://rickandmortyapi.com/api/location/1"
      },
      "location": {
        "name": "Citadel of Ricks",
        "url": "https://rickandmortyapi.com/api/location/3"
      },
      "episode": [
        "https://rickandmortyapi.com/api/episode/1"
      ]
    },
    {
      "id": 2,
      "name": "Morty Smith",
      "status": "Alive",
      "species": "Human",
      "type": "",
      "gender": "Male",
      "image": "https://rickandmortyapi.com/api/character/avatar/2.jpeg",
      "episode": []
    }
  ]
}
