{
  "info": {
    "count": 51,
    "pages": 3,
    "next": "https://rickandmortyapi.com/api/episode?page=2",
    "prev": null
  },
  "results": [
    {
      "id": 1,
      "name": "Pilot",
      "episode": "S01E01",
      "air_date": "December 2, 2013",
      "characters": [
        "https://rickandmortyapi.com/api/character/1"
      ]
    },
    {
      "id": 2,
      "name": "Lawnmower Dog",
      "episode": "S01E02",
      "air_date": "December 9, 2013"
    }
  ]
}
